Name,BirthDate,Age,Sex,Equipment,Division,BodyweightKg,WeightClassKg,Squat1Kg,Squat2Kg,Squat3Kg,Best3SquatKg,Bench1Kg,Bench2Kg,Bench3Kg,Best3BenchKg,Deadlift1Kg,Deadlift2Kg,Deadlift3Kg,Best3DeadliftKg,TotalKg,Place,Event,Tested
Mary Schlifke,,52,F,Wraps,F_MCR_3_APF,71.3,75,137.5,152.5,-165,152.5,65,72.5,75,75,145,-162.5,-162.5,145,372.5,1,SBD,
La Riena Ferguson,,42,F,Raw,F_MR_1_APF,87.4,90,157.5,-162.5,-162.5,157.5,70,72.5,77.5,77.5,157.5,165,-167.5,165,400,1,SBD,
Sandi Anderson,,44,F,Raw,F_MR_1_APF,104.9,90+,80,85,-90,85,45,50,-52.5,50,82.5,92.5,97.5,97.5,232.5,1,SBD,
Vanessa Davenport,,22,F,Wraps,F_JCR_APF,71.8,75,125,-135,-137.5,125,52.5,57.5,-62.5,57.5,127.5,137.5,145,145,327.5,1,SBD,
Noelle Kelly,,13,F,Raw,F_TR_1_APF,46.9,48,50,52.5,57.5,57.5,-30,-30,30,30,62.5,72.5,85,85,172.5,1,SBD,
Eva Whittimore,,34,F,Multi-ply,F_OEM_APF,60.8,67.5,205,217.5,-227.5,217.5,122.5,-130,-130,122.5,160,170,-175,170,510,1,SBD,
Ericha Holman,,25,F,Multi-ply,F_OEM_APF,79,82.5,135,145,-155,145,80,-85,90,90,102.5,120,140,140,375,1,SBD,
Tara Duncan,,34,F,Multi-ply,F_OEM_APF,126.1,90+,285,295,,295,165,-175,-175,165,182.5,-187.5,,182.5,642.5,1,SBD,
Rachel Strang,,31,F,Wraps,F_OCR_APF,59,60,115,122.5,130,130,57.5,65,-67.5,65,137.5,145,150,150,345,1,SBD,
Caitlin Glassman,,27,F,Wraps,F_OCR_APF,80,82.5,112.5,120,125,125,52.5,57.5,-65,57.5,115,125,130,130,312.5,1,SBD,
Tarra Farnham,,35,F,Wraps,F_OCR_APF,110.4,90+,130,-137.5,,130,57.5,-62.5,,57.5,,,,,,DQ,SBD,
Brittany Pennington,,32,F,Raw,F_OR_APF,72.7,75,102.5,107.5,112.5,112.5,-60,-60,60,60,115,125,147.5,147.5,320,1,SBD,
Sara Oliver,,31,F,Raw,F_OR_APF,133.7,90+,110,117.5,132.5,132.5,60,65,-70,65,110,120,130,130,327.5,1,SBD,
Roger Shaw,,76,M,Wraps,M_MCR_8_APF,74,75,155,165,-175,165,85,92.5,95,95,182.5,190,195,195,455,1,SBD,
Lee Lichtle,,77,M,Wraps,M_MCR_8_APF,91,100,135,-145,145,145,120,125,127.5,127.5,170,180,190,190,462.5,1,SBD,
Greg Ripley,,60,M,Single-ply,M_MES_5_APF,83.6,90,195,217.5,230,230,137.5,152.5,,152.5,182.5,210,-217.5,210,592.5,1,SBD,
Robert Boisclair,,60,M,Wraps,M_MCR_5_APF,105.6,110,-177.5,177.5,-190,177.5,120,125,130,130,72.5,,,72.5,380,1,SBD,
Ronald Squire,,59,M,Single-ply,M_MES_4_APF,106.2,110,192.5,212.5,227.5,227.5,120,-145,-145,120,260,-272.5,,260,607.5,1,SBD,
Joe Norman,,53,M,Single-ply,M_MES_3_APF,109,110,320,365,410,410,100,185,195,195,260,-282.5,,260,865,1,SBD,
Steven Slack,,52,M,Single-ply,M_MES_3_APF,108.5,110,227.5,237.5,-250,237.5,210,220,-227.5,220,240,255,272.5,272.5,730,2,SBD,
Travis Ramsey,,47,M,Wraps,M_MCR_2_APF,97.8,100,180,187.5,195,195,127.5,132.5,137.5,137.5,195,205,210,210,542.5,1,SBD,
Jesse Kellington,,42,M,Raw,M_MR_1_APF,86,90,115,120,125,125,87.5,115,-152.5,115,115,137.5,160,160,400,1,SBD,
Brett Perry,,20,M,Multi-ply,M_JEM_APF,95.5,100,260,272.5,282.5,282.5,-192.5,-192.5,-192.5,,250,262.5,272.5,272.5,,DQ,SBD,
Kamario Bell,,22,M,Wraps,M_JCR_APF,88.5,90,252.5,-280,-280,252.5,165,-175,-175,165,265,282.5,-297.5,282.5,700,1,SBD,
Nathaniel Kirby,,22,M,Raw,M_JR_APF,58.38,60,107.5,115,-120,115,70,80,-90,80,167.5,190,-212.5,190,385,1,SBD,
Hunter Micheletto,,22,M,Raw,M_JR_APF,86.4,90,170,182.5,192.5,192.5,120,-125,-125,120,220,230,237.5,237.5,550,1,SBD,
Dominick Norberto,,23,M,Raw,M_JR_APF,114.1,125,97.5,-107.5,110,110,60,65,-82.5,65,115,127.5,137.5,137.5,312.5,1,SBD,
Greg Ripley,,60,M,Single-ply,M_OES_APF,83.6,90,195,217.5,230,230,137.5,152.5,,152.5,182.5,210,-217.5,210,592.5,1,SBD,
Derek Harshman,,34,M,Multi-ply,M_OEM_APF,108.6,110,387.5,412.5,-420,412.5,227.5,-240,240,240,287.5,-310,310,310,962.5,1,SBD,
Frank D'Angelo,,39,M,Multi-ply,M_OEM_APF,104.6,110,-410,-432.5,-432.5,,,,,,,,,,,DQ,SBD,
Jo Jordan,,48,M,Multi-ply,M_OEM_APF,122.2,125,400,437.5,465,465,275,-302.5,-302.5,275,227.5,247.5,-260,247.5,987.5,1,SBD,
Devon Patterson,,25,M,Multi-ply,M_OEM_APF,122.2,125,357.5,385,410,410,-260,-260,-260,,285,312.5,320,320,,DQ,SBD,
Chris Petersen,,35,M,Multi-ply,M_OEM_APF,132.2,140,417.5,-455,455,455,275,-295,-295,275,247.5,280,290,290,1020,1,SBD,
Chad Robison,,33,M,Multi-ply,M_OEM_APF,135.3,140,400,-417.5,417.5,417.5,280,-312.5,-312.5,280,280,297.5,,297.5,995,2,SBD,
Stephen Coody #2,,30,M,Wraps,M_OCR_APF,99.1,100,170,185,202.5,202.5,110,125,-130,125,245,262.5,272.5,272.5,600,1,SBD,
Seth Albersworth #2,,27,M,Wraps,M_OCR_APF,109.2,110,340,-365,-377.5,340,200,-215,-215,200,295,320,,320,860,1,SBD,
John David Russo,,28,M,Wraps,M_OCR_APF,109.2,110,-247.5,247.5,,247.5,142.5,147.5,150,150,227.5,235,240,240,637.5,2,SBD,
Doran McFalls,,25,M,Wraps,M_OCR_APF,123.4,125,237.5,260,-272.5,260,150,-165,-165,150,245,272.5,-290,272.5,682.5,1,SBD,
Chris Durham,,31,M,Wraps,M_OCR_APF,112.1,125,157.5,162.5,175,175,70,80,-97.5,80,157.5,172.5,182.5,182.5,437.5,2,SBD,
Kyle O'Leary,,29,M,Wraps,M_OCR_APF,127.1,140,265,282.5,-305,282.5,165,177.5,,177.5,300,320,327.5,327.5,787.5,1,SBD,
Andy Montalvo,,24,M,Raw,M_OR_APF,55,56,167.5,-177.5,-182.5,167.5,122.5,-132.5,-132.5,122.5,177.5,190,205,205,495,1,SBD,
Kalyn Osborn,,31,F,Raw,F_OR_APF,87.5,90,,,,,-47.5,-47.5,-47.5,,,,,,,DQ,B,
Lee Lichtle,,77,M,Raw,M_MCR_8_APF,91,100,,,,,120,125,127.5,127.5,,,,,127.5,1,B,
John Wenz,,61,M,Single-ply,M_MES_5_APF,116.4,125,,,,,190,200,-210,200,,,,,200,1,B,
Jason Pennington,,43,M,Raw,M_MR_1_APF,106.6,110,,,,,160,167.5,-172.5,167.5,,,,,167.5,1,B,
Diane Sudduth,,60,F,Raw,F_MR_5_APF,79.8,82.5,,,,,,,,,125,137.5,147.5,147.5,147.5,1,D,
Lee Lichtle,,77,M,Raw,M_MCR_8_APF,91,100,,,,,,,,,170,180,190,190,190,1,D,
Jason Pennington,,43,M,Raw,M_MR_1_APF,106.6,110,,,,,,,,,250,272.5,,272.5,272.5,1,D,
