Division,WeightClassKg,Place,Name,Team,BodyweightKg,Best3SquatKg,Best3BenchKg,Best3DeadliftKg,TotalKg,Equipment,Event,Sex
Boys,51.71,1,Nathan Mendiaz,Monahans,48.35,154.22,97.52,149.69,401.43,Single-ply,SBD,M
Boys,51.71,2,Bryan Quinteros,Lamesa,51.62,151.95,88.45,149.69,390.09,Single-ply,SBD,M
Boys,51.71,3,Jared Paredez,Big Spring,50.62,133.81,70.31,154.22,358.34,Single-ply,SBD,M
Boys,51.71,4,Christian Solis,Pecos,51.71,86.18,72.57,136.08,294.84,Single-ply,SBD,M
Boys,51.71,5,Andrick Ramirez,Fort Stockton,48.99,115.67,61.23,113.4,290.3,Single-ply,SBD,M
Boys,51.71,6,Corbyn Sharp,Vernon,51.53,88.45,77.11,124.74,290.3,Single-ply,SBD,M
Boys,51.71,7,Morris Norman,Big Spring,47.36,88.45,68.04,122.47,278.96,Single-ply,SBD,M
Boys,51.71,8,Mattox Evans,Big Spring,49.71,102.06,52.16,115.67,269.89,Single-ply,SBD,M
Boys,51.71,9,Cameron Counts,Borger,50.17,79.38,49.9,113.4,242.67,Single-ply,SBD,M
Boys,51.71,10,Jack Blair,Midland Greenwood,49.17,86.18,54.43,95.25,235.87,Single-ply,SBD,M
Boys,55.79,1,Omar Alonso,Snyder,55.52,174.63,117.93,185.97,478.54,Single-ply,SBD,M
Boys,55.79,2,Chris Jackson #11,Sweetwater,54.79,167.83,108.86,158.76,435.45,Single-ply,SBD,M
Boys,55.79,3,Tim Aynes,Lamesa,54.98,149.69,81.65,149.69,381.02,Single-ply,SBD,M
Boys,55.79,4,Bryson Ovalle,Big Spring,54.98,129.27,83.91,145.15,358.34,Single-ply,SBD,M
Boys,55.79,5,Junie Gonzales,Midland Greenwood,55.7,131.54,70.31,147.42,349.27,Single-ply,SBD,M
Boys,55.79,6,Cristian Rayos,Levelland,53.25,113.4,92.99,138.35,344.73,Single-ply,SBD,M
Boys,55.79,7,Sean Mendoza,Big Spring,54.88,133.81,68.04,138.35,340.19,Single-ply,SBD,M
Boys,55.79,8,Cruz Martinez,Big Spring,55.16,131.54,68.04,122.47,322.05,Single-ply,SBD,M
Boys,55.79,9,Andrew Martinez,Pecos,54.98,102.06,86.18,86.18,274.42,Single-ply,SBD,M
Boys,55.79,NS,Gabriel Pedraza,Monahans,,,,,,Single-ply,SBD,M
Boys,55.79,NS,Ramon Zubiate,Denver City,,,,,,Single-ply,SBD,M
Boys,59.87,1,Justin Ormsby,Big Spring,57.42,199.58,86.18,204.12,489.88,Single-ply,SBD,M
Boys,59.87,2,Ty Diaz,Andrews,59.06,183.7,97.52,195.04,476.27,Single-ply,SBD,M
Boys,59.87,3,Ceasar Luther,Perryton,58.97,156.49,97.52,174.63,428.64,Single-ply,SBD,M
Boys,59.87,4,Nathan Olguin,Monahans,59.87,147.42,83.91,154.22,385.55,Single-ply,SBD,M
Boys,59.87,5,Oscar Vasquez #3,Monahans,59.33,138.35,70.31,151.95,360.61,Single-ply,SBD,M
Boys,59.87,6,Juan Ortega,Pecos,59.87,133.81,86.18,140.61,360.61,Single-ply,SBD,M
Boys,59.87,7,Joshua Lopez,Big Spring,58.97,138.35,68.04,151.95,358.34,Single-ply,SBD,M
Boys,59.87,8,Blake Scott,Sweetwater,59.78,138.35,77.11,138.35,353.8,Single-ply,SBD,M
Boys,59.87,9,Johnathan Vidal,Denver City,59.87,117.93,74.84,145.15,337.93,Single-ply,SBD,M
Boys,59.87,10,Jose Manzanares,Levelland,57.7,113.4,70.31,145.15,328.85,Single-ply,SBD,M
Boys,59.87,11,Ryan Austin,Midland Greenwood,59.15,122.47,74.84,129.27,326.59,Single-ply,SBD,M
Boys,59.87,DQ,Slade Edwards,Seminole,59.6,,,,,Single-ply,SBD,M
Boys,67.13,1,Josue Becerril,Perryton,66.59,192.78,129.27,222.26,544.31,Single-ply,SBD,M
Boys,67.13,2,Britin Garcia,Andrews,66.04,199.58,122.47,201.85,523.9,Single-ply,SBD,M
Boys,67.13,3,Jesus Rubio,Snyder,64.41,176.9,106.59,197.31,480.81,Single-ply,SBD,M
Boys,67.13,4,Matthew Cano,Perryton,66.32,183.7,108.86,188.24,480.81,Single-ply,SBD,M
Boys,67.13,5,Juan Salgado,Fort Stockton,66.13,181.44,113.4,183.7,478.54,Single-ply,SBD,M
Boys,67.13,6,Josh Camacho,Sweetwater,66.86,163.29,102.06,185.97,451.32,Single-ply,SBD,M
Boys,67.13,7,Matteo Nunez,Monahans,67.13,172.37,108.86,163.29,444.52,Single-ply,SBD,M
Boys,67.13,8,Jaheam Amos,Monahans,64.77,156.49,92.99,172.37,421.84,Single-ply,SBD,M
Boys,67.13,9,Kade Tinsley,Bushland,63.78,156.49,83.91,174.63,415.04,Single-ply,SBD,M
Boys,67.13,10,Christian Valles,Andrews,65.5,158.76,90.72,154.22,403.7,Single-ply,SBD,M
Boys,67.13,11,Kendall Adames,Sweetwater,65.14,145.15,83.91,167.83,396.89,Single-ply,SBD,M
Boys,67.13,DQ,Chuy Garza,Brownfield,67.13,,,,,Single-ply,SBD,M
Boys,74.84,1,Alex Rubio,Snyder,73.94,206.38,124.74,199.58,530.7,Single-ply,SBD,M
Boys,74.84,2,Ayden Pacheco,Andrews,72.39,217.72,117.93,192.78,528.44,Single-ply,SBD,M
Boys,74.84,3,Ryan Orona,Pecos,73.94,185.97,124.74,204.12,514.83,Single-ply,SBD,M
Boys,74.84,4,Ransom Edwards,Seminole,71.12,208.65,102.06,183.7,494.42,Single-ply,SBD,M
Boys,74.84,5,Mario Banos,Perryton,73.66,188.24,111.13,192.78,492.15,Single-ply,SBD,M
Boys,74.84,6,Ernesto Ornelas,Monahans,74.84,181.44,124.74,181.44,487.61,Single-ply,SBD,M
Boys,74.84,7,Skyler Davis,Levelland,72.85,156.49,102.06,195.04,453.59,Single-ply,SBD,M
Boys,74.84,8,Keagan Knight,Dalhart,74.39,185.97,102.06,165.56,453.59,Single-ply,SBD,M
Boys,74.84,9,Devin Mora,Andrews,70.94,183.7,104.33,161.03,449.06,Single-ply,SBD,M
Boys,74.84,10,Ethan Cortez,Sweetwater,73.57,161.03,90.72,183.7,435.45,Single-ply,SBD,M
Boys,74.84,DQ,Brysan Garrard,Vernon,72.12,,,,,Single-ply,SBD,M
Boys,74.84,DQ,Aliber Garza,Midland Greenwood,74.48,170.1,104.33,185.97,,Single-ply,SBD,M
Boys,82.1,1,Enrique Barron,Snyder,80.38,272.16,158.76,251.74,682.66,Single-ply,SBD,M
Boys,82.1,2,Robert Herndon,Perryton,82.01,244.94,142.88,229.06,616.89,Single-ply,SBD,M
Boys,82.1,3,Braden Latham,Midland Greenwood,80.65,240.4,138.35,226.8,605.55,Single-ply,SBD,M
Boys,82.1,4,Jj Burns,Snyder,79.38,242.67,115.67,235.87,594.21,Single-ply,SBD,M
Boys,82.1,5,Ethan Coleman,Midland Greenwood,81.1,226.8,131.54,185.97,544.31,Single-ply,SBD,M
Boys,82.1,6,Esau Flores,Andrews,79.92,195.04,111.13,197.31,503.49,Single-ply,SBD,M
Boys,82.1,7,Arturo Lopez,Perryton,80.47,197.31,115.67,183.7,496.68,Single-ply,SBD,M
Boys,82.1,8,Logon Terell,Bushland,79.65,158.76,117.93,210.92,487.61,Single-ply,SBD,M
Boys,82.1,9,Tony Padilla,Sweetwater,78.47,176.9,111.13,185.97,474,Single-ply,SBD,M
Boys,82.1,10,Carson Smith,Dalhart,80.38,188.24,115.67,170.1,474,Single-ply,SBD,M
Boys,82.1,11,Dalton Reagan,Vernon,80.65,174.63,115.67,172.37,462.66,Single-ply,SBD,M
Boys,82.1,DQ,Danny Hillyer,Borger,81.47,181.44,120.2,,,Single-ply,SBD,M
Boys,89.81,1,Dalton Richardson,Midland Greenwood,87.09,274.42,145.15,274.42,694,Single-ply,SBD,M
Boys,89.81,2,Gerardo Cabrera,Snyder,87,265.35,142.88,258.55,666.78,Single-ply,SBD,M
Boys,89.81,3,Jesse Flores,Levelland,89.18,235.87,170.1,204.12,610.08,Single-ply,SBD,M
Boys,89.81,4,Erique Rinehart,Snyder,89.72,235.87,140.61,226.8,603.28,Single-ply,SBD,M
Boys,89.81,5,Ignacio Camacho,Monahans,87.72,240.4,138.35,213.19,591.94,Single-ply,SBD,M
Boys,89.81,6,Raul Rios,Snyder,88.36,226.8,154.22,199.58,580.6,Single-ply,SBD,M
Boys,89.81,7,Jesus Lopez,Andrews,88,226.8,140.61,204.12,571.53,Single-ply,SBD,M
Boys,89.81,8,Mason Lowman,Borger,88.63,204.12,136.08,215.46,555.65,Single-ply,SBD,M
Boys,89.81,9,Beau Narrell,Andrews,88.63,204.12,113.4,222.26,539.77,Single-ply,SBD,M
Boys,89.81,10,Joe Caro,Seminole,87.72,213.19,106.59,206.38,526.17,Single-ply,SBD,M
Boys,89.81,DQ,Damon Casarez,Seminole,86.91,,,,,Single-ply,SBD,M
Boys,89.81,DQ,Cristobal Escalante,Denver City,88,188.24,149.69,,,Single-ply,SBD,M
Boys,99.79,1,Uriel Hernandez,Perryton,98.61,283.5,174.63,244.94,703.07,Single-ply,SBD,M
Boys,99.79,2,Ian Alvidrez,Seminole,94.98,258.55,158.76,263.08,680.39,Single-ply,SBD,M
Boys,99.79,3,Kyler Saenz,Snyder,97.07,249.48,136.08,201.85,587.4,Single-ply,SBD,M
Boys,99.79,4,Hayden Pipkin,Monahans,94.53,226.8,156.49,195.04,578.33,Single-ply,SBD,M
Boys,99.79,5,Christian Perez,Levelland,93.44,219.99,124.74,204.12,548.85,Single-ply,SBD,M
Boys,99.79,6,Damian Pena,Denver City,93.8,201.85,136.08,208.65,546.58,Single-ply,SBD,M
Boys,99.79,7,Octavio Frausto,Andrews,93.44,219.99,122.47,201.85,544.31,Single-ply,SBD,M
Boys,99.79,8,Jay Ramirez,Perryton,97.61,224.53,117.93,199.58,542.04,Single-ply,SBD,M
Boys,99.79,9,Connor McDonald,Midland Greenwood,95.89,226.8,127.01,181.44,535.24,Single-ply,SBD,M
Boys,99.79,10,Cameron Burger,Midland Greenwood,97.79,204.12,117.93,192.78,514.83,Single-ply,SBD,M
Boys,99.79,DQ,David Navarrete,Perryton,98.79,215.46,,,,Single-ply,SBD,M
Boys,99.79,DQ,Ariel Delgado,Seminole,95.98,,,,,Single-ply,SBD,M
Boys,109.77,1,Alexis Gonzalez #1,Denver City,107.32,238.14,181.44,238.14,657.71,Single-ply,SBD,M
Boys,109.77,2,Macario Rivera,Snyder,107.5,272.16,154.22,226.8,653.17,Single-ply,SBD,M
Boys,109.77,3,Brandon Contreras,Andrews,106.05,260.82,122.47,231.33,614.62,Single-ply,SBD,M
Boys,109.77,4,Ivan Esquivel,Denver City,109.77,244.94,142.88,217.72,605.55,Single-ply,SBD,M
Boys,109.77,5,Justin Castereno,Sweetwater,107.14,235.87,124.74,233.6,594.21,Single-ply,SBD,M
Boys,109.77,6,Ivan Delgado,Big Spring,105.69,254.01,140.61,195.04,589.67,Single-ply,SBD,M
Boys,109.77,7,Israel Uribe,Perryton,108.86,244.94,124.74,219.99,589.67,Single-ply,SBD,M
Boys,109.77,8,Ubaldo Tarango,Perryton,107.5,219.99,138.35,213.19,571.53,Single-ply,SBD,M
Boys,109.77,9,Blaine Hunt,Monahans,106.78,206.38,131.54,213.19,551.11,Single-ply,SBD,M
Boys,109.77,10,Christian Bell,Midland Greenwood,100.52,213.19,129.27,195.04,537.51,Single-ply,SBD,M
Boys,109.77,NS,Diego Garcia #6,Brownfield,,,,,,Single-ply,SBD,M
Boys,109.77,DQ,Ethan Martinez,Lamesa,107.05,251.74,145.15,,,Single-ply,SBD,M
Boys,124.74,1,Kobe Fahntrapp,Snyder,122.2,317.51,185.97,240.4,743.89,Single-ply,SBD,M
Boys,124.74,2,Jarod Rose,Midland Greenwood,121.56,272.16,167.83,249.48,689.46,Single-ply,SBD,M
Boys,124.74,3,Yordi Hernandez,Perryton,121.38,272.16,167.83,235.87,675.85,Single-ply,SBD,M
Boys,124.74,4,Frank Gallegos,Dalhart,120.11,254.01,192.78,213.19,659.98,Single-ply,SBD,M
Boys,124.74,5,Noah Barriga,Fort Stockton,121.11,256.28,165.56,231.33,653.17,Single-ply,SBD,M
Boys,124.74,6,Ivien Gonzales,Lamesa,122.11,249.48,170.1,226.8,646.37,Single-ply,SBD,M
Boys,124.74,7,Preston Newman,Vernon,117.3,242.67,165.56,235.87,644.1,Single-ply,SBD,M
Boys,124.74,8,Moses Rodriquez,Lamesa,110.77,231.33,156.49,210.92,598.74,Single-ply,SBD,M
Boys,124.74,9,Cooper Lackie,Dalhart,123.1,233.6,149.69,199.58,582.87,Single-ply,SBD,M
Boys,124.74,10,Jose Calderon,Monahans,124.01,204.12,167.83,201.85,573.79,Single-ply,SBD,M
Boys,124.74,11,Brendan Herring,Dalhart,120.38,229.06,140.61,197.31,566.99,Single-ply,SBD,M
Boys,124.74,12,Rey Heredia,Borger,118.93,219.99,138.35,204.12,562.45,Single-ply,SBD,M
Boys,124.74+,1,Sebastian Enriquez,Fort Stockton,127.1,290.3,183.7,265.35,739.36,Single-ply,SBD,M
Boys,124.74+,2,Anthony Cuellar,Andrews,129.64,285.76,195.04,226.8,707.6,Single-ply,SBD,M
Boys,124.74+,3,Jaden Massey,Dalhart,148.6,285.76,190.51,229.06,705.34,Single-ply,SBD,M
Boys,124.74+,4,Lorenzo Rogers,Snyder,142.43,290.3,154.22,226.8,671.32,Single-ply,SBD,M
Boys,124.74+,5,Tytus Williams,Borger,133.54,260.82,145.15,249.48,655.44,Single-ply,SBD,M
Boys,124.74+,6,Jordan Dunn #2,Big Spring,125.19,274.42,161.03,217.72,653.17,Single-ply,SBD,M
Boys,124.74+,7,Izak Leyva,Monahans,171.28,251.74,165.56,233.6,650.91,Single-ply,SBD,M
Boys,124.74+,8,Max Rodriguez,Sweetwater,127.01,247.21,138.35,219.99,605.55,Single-ply,SBD,M
Boys,124.74+,9,Austin Kelly,Seminole,130.18,226.8,145.15,226.8,598.74,Single-ply,SBD,M
Boys,124.74+,10,Jeremiah Barrera,Sweetwater,131.54,226.8,113.4,238.14,578.33,Single-ply,SBD,M
Boys,124.74+,11,Luis Jauregui,Monahans,131.45,235.87,131.54,204.12,571.53,Single-ply,SBD,M
Boys,124.74+,DQ,Blake Whitney,Snyder,149.5,272.16,117.93,,,Single-ply,SBD,M
Boys,124.74+,NS,Ivan Medina,Borger,,,,,,Single-ply,SBD,M
Boys,,NS,Ryan Ortiz,Dalhart,,,,,,Single-ply,SBD,M
