Division,WeightClassKg,Place,Name,Team,BodyweightKg,Best3SquatKg,Best3BenchKg,Best3DeadliftKg,TotalKg,Equipment,Event,Sex
Boys,51.71,1,Johnny Horta,Weslaco East,51.35,145.15,77.11,185.97,408.23,Single-ply,SBD,M
Boys,51.71,2,Steve Solis,PSJA Memorial,51.48,122.47,77.11,131.54,331.12,Single-ply,SBD,M
Boys,55.79,3,Rafael Morales,Laredo Cigarroa,51.89,102.06,79.38,142.88,324.32,Single-ply,SBD,M
Boys,51.71,4,Jesus Ramirez,Zapata,44.91,63.5,45.36,92.99,201.85,Single-ply,SBD,M
Boys,51.71,DQ,Randy Nolastname,Weslaco,51.71,,,,,Single-ply,SBD,M
Boys,55.79,1,Anibal Martinez,Los Fresnos,55.34,213.19,102.06,206.38,521.63,Single-ply,SBD,M
Boys,55.79,2,Eric Torres #1,Weslaco East,54.43,181.44,120.2,213.19,514.83,Single-ply,SBD,M
Boys,55.79,3,Enrique Alvarez,Laredo Cigarroa,55.02,174.63,102.06,176.9,453.59,Single-ply,SBD,M
Boys,55.79,4,Alex Solis,Weslaco East,54.7,154.22,102.06,176.9,433.18,Single-ply,SBD,M
Boys,55.79,5,Rolando Borjas,Los Fresnos,54.61,165.56,97.52,167.83,430.91,Single-ply,SBD,M
Boys,55.79,6,Robert Barajas,Laredo Martin,55.25,167.83,79.38,181.44,428.64,Single-ply,SBD,M
Boys,59.87,7,Jesse Casarez,Mercedes,55.97,174.63,74.84,158.76,408.23,Single-ply,SBD,M
Boys,55.79,8,Rigo Pena,Pharr Valley View,54.7,138.35,95.25,158.76,392.36,Single-ply,SBD,M
Boys,55.79,9,Daniel Rodriguez #8,PSJA,54.25,136.08,86.18,136.08,358.34,Single-ply,SBD,M
Boys,55.79,10,Mike Jarmillo,PSJA Memorial,53.16,138.35,83.91,133.81,356.07,Single-ply,SBD,M
Boys,59.87,11,Ricardo Garcia,Rio Grande City,56.02,122.47,70.31,140.61,333.39,Single-ply,SBD,M
Boys,55.79,12,Dylan Lindley,Mission Sharyland,53.61,113.4,65.77,136.08,315.25,Single-ply,SBD,M
Boys,55.79,13,Felipe Medina,Zapata,55.7,122.47,54.43,122.47,299.37,Single-ply,SBD,M
Boys,55.79,DQ,Saul Elizando,Rio Grande City,55.79,133.81,61.23,,,Single-ply,SBD,M
Boys,55.79,DQ,Issac Diaz,PSJA,55.16,142.88,,,,Single-ply,SBD,M
Boys,59.87,1,Nick Laznovsky,Los Fresnos,59.51,258.55,117.93,226.8,603.28,Single-ply,SBD,M
Boys,59.87,2,Rolie Alaniz,Weslaco East,59.6,204.12,97.52,206.38,508.02,Single-ply,SBD,M
Boys,59.87,3,Edgar Martinez #4,Laredo Cigarroa,59.78,174.63,86.18,181.44,442.25,Single-ply,SBD,M
Boys,59.87,4,Virgil Alfaro,Zapata,58.15,145.15,81.65,176.9,403.7,Single-ply,SBD,M
Boys,59.87,5,Lucky Carrasco,Pharr Valley View,58.79,158.76,83.91,161.03,403.7,Single-ply,SBD,M
Boys,67.13,6,Gilbert Flores,Pharr Valley View,59.96,142.88,86.18,154.22,383.29,Single-ply,SBD,M
Boys,67.13,7,William Valdez,Rio Grande City,60.1,120.2,120.2,142.88,383.29,Single-ply,SBD,M
Boys,59.87,8,Marco Oyerdidez,PSJA,59.06,142.88,88.45,142.88,374.21,Single-ply,SBD,M
Boys,59.87,9,Jose Bazaldua,Mercedes,59.78,138.35,79.38,149.69,367.41,Single-ply,SBD,M
Boys,67.13,10,Juan Ramos,Hebbronville,60.06,115.67,81.65,163.29,360.61,Single-ply,SBD,M
Boys,59.87,11,Ramiro C,Weslaco,57.97,127.01,77.11,129.27,333.39,Single-ply,SBD,M
Boys,59.87,12,Robert Aranda,Mission Veterans Memorial,58.51,127.01,68.04,124.74,319.78,Single-ply,SBD,M
Boys,59.87,DQ,Jacob Garcia,Mercedes,59.78,,,,,Single-ply,SBD,M
Boys,67.13,1,Isaac Nunez,Los Fresnos,64.68,247.21,163.29,199.58,610.08,Single-ply,SBD,M
Boys,67.13,2,Rene Molina,Hebbronville,65.77,185.97,99.79,185.97,471.74,Single-ply,SBD,M
Boys,67.13,3,Abram Rodriguez,Hebbronville,64.95,170.1,95.25,176.9,442.25,Single-ply,SBD,M
Boys,74.84,4,Steve Flores,Pharr Valley View,67.31,156.49,92.99,181.44,430.91,Single-ply,SBD,M
Boys,67.13,5,Vinny Flores,Zapata,63.41,136.08,108.86,181.44,426.38,Single-ply,SBD,M
Boys,74.84,6,Miguel Silva #3,Donna,67.22,158.76,79.38,142.88,381.02,Single-ply,SBD,M
Boys,67.13,7,Jose Gonzalez #19,Laredo Cigarroa,64.05,142.88,81.65,154.22,378.75,Single-ply,SBD,M
Boys,67.13,8,Lionel A,Weslaco,63.41,124.74,90.72,158.76,374.21,Single-ply,SBD,M
Boys,67.13,9,Angel Cabrera,Laredo Martin,66.22,106.59,95.25,142.88,344.73,Single-ply,SBD,M
Boys,67.13,10,Roy Rod,Weslaco,61.23,106.59,61.23,136.08,303.91,Single-ply,SBD,M
Boys,67.13,DQ,Justin G,Weslaco,61.42,154.22,,,,Single-ply,SBD,M
Boys,67.13,DQ,Izzy Garza,PSJA Memorial,63.59,,,,,Single-ply,SBD,M
Boys,67.13,DQ,Alfonso Flores,Laredo Martin,64.68,140.61,,,,Single-ply,SBD,M
Boys,74.84,1,Jaime Cortez,Mission Sharyland,74.21,238.14,136.08,238.14,612.35,Single-ply,SBD,M
Boys,74.84,2,Danny Flores,Zapata,72.39,192.78,111.13,206.38,510.29,Single-ply,SBD,M
Boys,74.84,3,Jose Gonzalez #20,Pharr Valley View,71.3,183.7,115.67,204.12,503.49,Single-ply,SBD,M
Boys,74.84,4,Joe Garza,Mercedes,74.21,192.78,99.79,188.24,480.81,Single-ply,SBD,M
Boys,74.84,5,Gus Sanchez,Los Fresnos,74.48,176.9,127.01,174.63,478.54,Single-ply,SBD,M
Boys,74.84,6,Eduardo Salinas,Laredo Cigarroa,74.12,176.9,111.13,183.7,471.74,Single-ply,SBD,M
Boys,82.1,7,Aric Hdz,Weslaco,74.93,149.69,104.33,201.85,455.86,Single-ply,SBD,M
Boys,74.84,8,Noel Zuniga,PSJA,68.49,174.63,99.79,158.76,433.18,Single-ply,SBD,M
Boys,74.84,9,Alfredo Castillo,Zapata,74.03,138.35,111.13,181.44,430.91,Single-ply,SBD,M
Boys,74.84,10,Jesse Vega,Mercedes,74.39,161.03,99.79,158.76,419.57,Single-ply,SBD,M
Boys,74.84,11,Danny Sandoval,PSJA,74.3,158.76,102.06,151.95,412.77,Single-ply,SBD,M
Boys,74.84,12,Marco Moreno,Mission Veterans Memorial,70.13,145.15,77.11,176.9,399.16,Single-ply,SBD,M
Boys,74.84,13,Robert Cantu,Mission Sharyland,71.85,147.42,92.99,158.76,399.16,Single-ply,SBD,M
Boys,74.84,14,Abram Guerra,Rio Grande City,72.12,142.88,88.45,136.08,367.41,Single-ply,SBD,M
Boys,74.84,15,John Trevino,Hebbronville,70.76,136.08,68.04,158.76,362.87,Single-ply,SBD,M
Boys,74.84,16,Justin Guerra,Rio Grande City,74.62,127.01,95.25,127.01,349.27,Single-ply,SBD,M
Boys,74.84,17,Jaime Villarreal,Mission Veterans Memorial,73.66,111.13,63.5,124.74,299.37,Single-ply,SBD,M
Boys,74.84,18,Rene Codina,Mission Veterans Memorial,68.76,99.79,86.18,102.06,288.03,Single-ply,SBD,M
Boys,74.84,DQ,Armando Hernandez,Los Fresnos,74.48,,,,,Single-ply,SBD,M
Boys,74.84,DQ,Ezer Hernandez,PSJA Memorial,73.71,147.42,,,,Single-ply,SBD,M
Boys,82.1,1,Erik Ramirez,Donna,81.92,265.35,142.88,235.87,644.1,Single-ply,SBD,M
Boys,89.81,2,Chris Belmares,Weslaco East,82.19,213.19,136.08,217.72,566.99,Single-ply,SBD,M
Boys,82.1,3,Ricardo Lopez,Rio Grande City,80.29,215.46,108.86,190.51,514.83,Single-ply,SBD,M
Boys,82.1,4,Ram Cantu,PSJA,81.92,204.12,120.2,190.51,514.83,Single-ply,SBD,M
Boys,82.1,5,Danny Cruz,Donna,76.11,206.38,111.13,188.24,505.76,Single-ply,SBD,M
Boys,82.1,6,Jerry Tanguma,Rio Grande City,80.74,201.85,106.59,192.78,501.22,Single-ply,SBD,M
Boys,82.1,7,To Fonseca,PSJA,81.28,208.65,117.93,163.29,489.88,Single-ply,SBD,M
Boys,82.1,8,Ernie Takolla,Weslaco,81.1,181.44,108.86,188.24,478.54,Single-ply,SBD,M
Boys,82.1,9,Matt Galvan,San Benito,81.83,179.17,97.52,185.97,462.66,Single-ply,SBD,M
Boys,89.81,10,Willie Rodriguez,Mission Sharyland,82.19,165.56,113.4,181.44,460.4,Single-ply,SBD,M
Boys,82.1,11,Alex Hernandez #20,Zapata,77.2,163.29,115.67,165.56,444.52,Single-ply,SBD,M
Boys,82.1,12,Andrew Cura,Mission Sharyland,78.02,158.76,102.06,183.7,444.52,Single-ply,SBD,M
Boys,82.1,13,Cesar Ibarra,Mission Veterans Memorial,80.47,138.35,81.65,120.2,340.19,Single-ply,SBD,M
Boys,82.1,14,Damian Regelado,Mission Veterans Memorial,76.11,90.72,65.77,102.06,258.55,Single-ply,SBD,M
Boys,82.1,DQ,Malcolm Garza,Mercedes,78.29,,,,,Single-ply,SBD,M
Boys,89.81,1,Xaviel Hinojosa,Weslaco East,88.54,274.42,167.83,249.48,691.73,Single-ply,SBD,M
Boys,89.81,2,Joseph Garcia,Weslaco East,88.18,224.53,140.61,235.87,601.01,Single-ply,SBD,M
Boys,89.81,3,Trey Villarreal,San Benito,84.73,226.8,147.42,190.51,564.72,Single-ply,SBD,M
Boys,99.79,4,Gilbert Garcia,Mission Sharyland,89.99,240.4,120.2,204.12,564.72,Single-ply,SBD,M
Boys,89.81,5,Arron Barron,San Benito,88.54,206.38,113.4,204.12,523.9,Single-ply,SBD,M
Boys,89.81,6,Abraham Vasquez,PSJA Memorial,84.69,199.58,124.74,183.7,508.02,Single-ply,SBD,M
Boys,89.81,7,Justin Fuentes,Zapata,88.72,190.51,117.93,185.97,494.42,Single-ply,SBD,M
Boys,89.81,8,Ej Canales,Hebbronville,89.27,158.76,97.52,195.04,451.32,Single-ply,SBD,M
Boys,89.81,9,Esteban Arredondo,Hebbronville,88.27,142.88,86.18,185.97,415.04,Single-ply,SBD,M
Boys,89.81,10,Armando Alvarado,Mission Veterans Memorial,89.81,99.79,97.52,124.74,322.05,Single-ply,SBD,M
Boys,89.81,11,Michael Hernandez,Mission Veterans Memorial,86.64,81.65,72.57,106.59,260.82,Single-ply,SBD,M
Boys,89.81,DQ,Aaron Castillo,Los Fresnos,87.36,,,,,Single-ply,SBD,M
Boys,99.79,1,Victor Ruiz,Weslaco East,98.25,285.76,170.1,229.06,684.92,Single-ply,SBD,M
Boys,99.79,2,Ivan Arrevalo,Pharr Valley View,99.43,260.82,142.88,249.48,653.17,Single-ply,SBD,M
Boys,109.77,3,Andre Evans,San Benito,99.88,272.16,124.74,244.94,641.83,Single-ply,SBD,M
Boys,99.79,4,Alex Wheeler,Zapata,90.72,217.72,167.83,226.8,612.35,Single-ply,SBD,M
Boys,99.79,5,Jerry Nino,Laredo Martin,99.34,217.72,158.76,226.8,603.28,Single-ply,SBD,M
Boys,99.79,6,Ivan Gonzalez,Los Fresnos,90.54,210.92,138.35,226.8,576.06,Single-ply,SBD,M
Boys,99.79,7,Aaron Garcia,Los Fresnos,96.89,204.12,151.95,183.7,539.77,Single-ply,SBD,M
Boys,99.79,8,Ram Flores,Los Fresnos,90.36,206.38,142.88,185.97,535.24,Single-ply,SBD,M
Boys,99.79,9,Bart Perez,Los Fresnos,96.62,192.78,142.88,195.04,530.7,Single-ply,SBD,M
Boys,99.79,10,Mauricio Verdin,Weslaco,95.25,217.72,113.4,183.7,514.83,Single-ply,SBD,M
Boys,99.79,11,Eric Maganos,Mercedes,91.81,206.38,117.93,188.24,512.56,Single-ply,SBD,M
Boys,99.79,12,Jose Coreas,Laredo Cigarroa,95.71,206.38,95.25,183.7,485.34,Single-ply,SBD,M
Boys,99.79,13,Victor Argullar,Mercedes,96.07,188.24,104.33,174.63,467.2,Single-ply,SBD,M
Boys,109.77,14,Sam Sanchez #1,Mercedes,99.84,190.51,111.13,165.56,467.2,Single-ply,SBD,M
Boys,99.79,15,Daniel Mora,Mission Sharyland,92.08,174.63,106.59,181.44,462.66,Single-ply,SBD,M
Boys,99.79,16,Bryan Sanchez,PSJA,99.16,183.7,99.79,151.95,435.45,Single-ply,SBD,M
Boys,99.79,17,Jon Ruiz,Mission Veterans Memorial,92.71,140.61,102.06,147.42,390.09,Single-ply,SBD,M
Boys,99.79,18,Daniel Ybarra,Hebbronville,95.89,124.74,86.18,151.95,362.87,Single-ply,SBD,M
Boys,99.79,DQ,Eddie Alvarez,Laredo Martin,99.61,151.95,,,,Single-ply,SBD,M
Boys,99.79,DQ,Robbie Garcia,Mercedes,94.8,149.69,99.79,,,Single-ply,SBD,M
Boys,99.79,DQ,Justin Soza,Zapata,93.35,226.8,,,,Single-ply,SBD,M
Boys,99.79,DQ,Jose Barrios,Weslaco East,97.7,238.14,,,,Single-ply,SBD,M
Boys,109.77,1,Cat Salazar,Weslaco East,108.59,294.84,195.04,251.74,741.62,Single-ply,SBD,M
Boys,109.77,2,Freddy Chavarria,Laredo Martin,108.14,249.48,158.76,213.19,621.42,Single-ply,SBD,M
Boys,109.77,3,Marcelo Campos,Mercedes,108.86,249.48,133.81,226.8,610.08,Single-ply,SBD,M
Boys,109.77,4,Larry Cardenas,Weslaco,102.6,226.8,142.88,219.99,589.67,Single-ply,SBD,M
Boys,109.77,5,Raul Hinojosa,Zapata,106.78,206.38,127.01,217.72,551.11,Single-ply,SBD,M
Boys,109.77,6,Eduardo Fraire,Donna,100.79,215.46,115.67,197.31,528.44,Single-ply,SBD,M
Boys,109.77,7,Steve Scott,Mission Sharyland,101.88,183.7,117.93,185.97,487.61,Single-ply,SBD,M
Boys,109.77,8,Michael Dominguez,Hebbronville,106.14,181.44,108.86,195.04,485.34,Single-ply,SBD,M
Boys,109.77,9,Robert Garcia #6,Mission Sharyland,107.14,185.97,113.4,183.7,483.08,Single-ply,SBD,M
Boys,109.77,10,Diego Almazo,Mission Sharyland,106.23,192.78,106.59,174.63,474,Single-ply,SBD,M
Boys,109.77,11,Victor Martinez,Laredo Martin,109.59,181.44,115.67,176.9,474,Single-ply,SBD,M
Boys,109.77,12,Danny Ramos,Mission Veterans Memorial,106.59,136.08,92.99,131.54,360.61,Single-ply,SBD,M
Boys,109.77,13,Frank Cavazos,Mission Veterans Memorial,109.23,136.08,88.45,131.54,356.07,Single-ply,SBD,M
Boys,109.77,DQ,Sergio Guevara,Donna,106.14,213.19,,,,Single-ply,SBD,M
Boys,109.77,DQ,Albert Vasquez,PSJA,109.13,199.58,,,,Single-ply,SBD,M
Boys,124.74,1,Carlos Cuellar,Weslaco East,117.84,285.76,188.24,238.14,712.14,Single-ply,SBD,M
Boys,124.74,2,Tony Garcia,Hebbronville,117.57,272.16,142.88,226.8,641.83,Single-ply,SBD,M
Boys,124.74,3,Jason Guerra,Rio Grande City,119.93,260.82,147.42,219.99,628.23,Single-ply,SBD,M
Boys,124.74,4,Luis Castillo,Weslaco,124.74,254.01,145.15,226.8,625.96,Single-ply,SBD,M
Boys,124.74,5,Carlos Gomez,Laredo Martin,124.1,204.12,136.08,226.8,566.99,Single-ply,SBD,M
Boys,124.74,6,Mauro Herrera,PSJA,117.75,226.8,97.52,188.24,512.56,Single-ply,SBD,M
Boys,124.74,7,Julio Rivas,San Benito,121.29,188.24,124.74,192.78,505.76,Single-ply,SBD,M
Boys,124.74,8,Grant Garza,Mission Sharyland,114.94,181.44,102.06,181.44,464.93,Single-ply,SBD,M
Boys,124.74,9,Rolando Garza,Hebbronville,120.66,181.44,95.25,185.97,462.66,Single-ply,SBD,M
Boys,124.74,10,Oscar Cruz,Mission Veterans Memorial,116.85,83.91,72.57,117.93,274.42,Single-ply,SBD,M
Boys,124.74,DQ,Eliseo Pena,Weslaco,112.72,201.85,201.85,,,Single-ply,SBD,M
Boys,124.74+,1,Mando Salazar,Donna,126.37,256.28,163.29,226.8,646.37,Single-ply,SBD,M
Boys,124.74+,2,Jorge Mendez,Pharr Valley View,130.09,272.16,138.35,231.33,641.83,Single-ply,SBD,M
Boys,124.74+,3,Adrian Cantu,Rio Grande City,155.67,219.99,136.08,183.7,539.77,Single-ply,SBD,M
Boys,124.74+,4,Chris Castro,Los Fresnos,136.17,224.53,99.79,190.51,514.83,Single-ply,SBD,M
Boys,124.74+,5,Ryan Willison,PSJA Memorial,172.37,199.58,133.81,176.9,510.29,Single-ply,SBD,M
Boys,124.74+,6,Ricardo Zamora,PSJA,127.37,181.44,97.52,176.9,455.86,Single-ply,SBD,M
Boys,124.74+,7,Abraham Martinez,Mission Veterans Memorial,166.29,145.15,117.93,154.22,417.3,Single-ply,SBD,M
Boys,124.74+,8,Gerado Cadena,Laredo Cigarroa,165.56,140.61,81.65,149.69,371.95,Single-ply,SBD,M
